*** Settings ***
Suite Setup
Resource          ../Common/activity_common_resource.txt
Resource          ../Common/session及请求.txt

*** Test Cases ***
走势图访问成功
    ${data}    set variable    secuCode=600887
    ${api}    Set Variable    /stock/chart
    ${return}    web_post    ${url_risk}    ${api}    ${data}    ${SID}
    should be equal    ${return['error_msg']}    success
